<svg id="グループ_12" data-name="グループ 12" xmlns="http://www.w3.org/2000/svg" width="290.38" height="290.4" viewBox="0 0 290.38 290.4">
  <defs>
    <style>
      .cls-1 {
        fill: #fff;
      }

      .cls-2 {
        fill-rule: evenodd;
      }
    </style>
  </defs>
  <circle id="楕円形_3" data-name="楕円形 3" class="cls-1" cx="145.19" cy="145.2" r="145.19"/>
  <path id="シェイプ_30" data-name="シェイプ 30" class="cls-2" d="M1370.87,12924a6.643,6.643,0,0,0-5.41,2.5,10.671,10.671,0,0,0-1.95,6.7v6.2a10.615,10.615,0,0,0,1.97,6.7,7.18,7.18,0,0,0,10.89,0,10.5,10.5,0,0,0,2-6.7v-6.2a10.447,10.447,0,0,0-2.01-6.7A6.858,6.858,0,0,0,1370.87,12924Zm14.94-43.1h-0.16l-4.26,13.5h8.65Zm100.56-13.9a10.307,10.307,0,0,0-10.31-10.3h-40.43v-26.9l-0.81-.2-5.18-1.2a123.639,123.639,0,0,0-58.42,0l-5.18,1.2-0.79.2v26.8h-40.47a10.4,10.4,0,0,0-10.33,10.4v87.5a10.3,10.3,0,0,0,10.31,10.3l151.32,0.1a10.388,10.388,0,0,0,10.32-10.4Zm-54.9,5.8-11.51,16,12.42,18.4h-8.35l-9.19-14.4h-3.81v14.4h-6.87v-34.4h6.87v14.1h3l9.06-14.1h8.38Zm-54.02-33.3a118.2,118.2,0,0,1,22.97-2.3,111.875,111.875,0,0,1,23,2.4v17.1l-45.97-.1v-17.1Zm4.78,33.3h7.02l11.73,34.4h-6.95l-2.32-7.4H1379.7l-2.33,7.4h-6.92Zm-38.88,5.3v-5.3h26.19v5.3h-9.69v29.1h-6.86v-29.1h-9.64Zm41.86,61.3a14.356,14.356,0,0,1-3.98,10.5,15.241,15.241,0,0,1-17.77,2.2,12.767,12.767,0,0,1-5.02-5.2,15.616,15.616,0,0,1-1.77-7.5v-6.2a14.737,14.737,0,0,1,3.94-10.5,14.988,14.988,0,0,1,20.6,0,14.654,14.654,0,0,1,4,10.5v6.2Zm32.42,2.5c0,3.8-1.24,6.8-3.73,8.9s-5.83,3.2-10.01,3.2-7.52-1.1-9.99-3.2-3.71-5-3.71-8.9v-22.8h6.9v22.8c0,2.3.58,4,1.76,5.1a7.127,7.127,0,0,0,5.05,1.7,7.24,7.24,0,0,0,5.08-1.7q1.785-1.65,1.79-5.1v-22.8h6.86v22.8Zm29.64-17.5h-9.69v29h-6.86v-29h-9.64v-5.3h26.19v5.3Zm11.43-17.2h-23.44v-34.4h23.39v5.3h-16.53v8.7h14.18v5.3h-14.18v9.8h16.58v5.3Z" transform="translate(-1254.81 -12751.8)"/>
</svg>
